results_so_far
…
Germany

Total Germany (DEUTNP)

East Germany (DEUTE)

West Germany (DEUTW)

Simulated/Synthetic Germany

Analysis

For each of these countries, and for males and females separately, we are interested in the annual changes in life expectancy at birth (\(e_0\)) and life expectancy at age 65 (\(e_{65}\)), from 1980 to the last available year for each country.

## # A tibble: 3,820 x 5
##    code    year     x sex       ex
##    <chr>  <int> <int> <chr>  <dbl>
##  1 DEUTNP  1990     0 female  78.4
##  2 DEUTNP  1990    65 female  17.6
##  3 DEUTNP  1991     0 female  78.7
##  4 DEUTNP  1991    65 female  17.8
##  5 DEUTNP  1992     0 female  79.1
##  6 DEUTNP  1992    65 female  18.1
##  7 DEUTNP  1993     0 female  79.2
##  8 DEUTNP  1993    65 female  18.1
##  9 DEUTNP  1994     0 female  79.5
## 10 DEUTNP  1994    65 female  18.4
## # ... with 3,810 more rows
…
